Date,GitHub,SourceForge,Google Code,GitLab,Bitbucket
2004-01,0,49,0,0,0
2004-02,0,50,0,0,0
2004-03,0,48,0,0,0
2004-04,0,50,0,0,0
2004-05,0,46,0,0,1
2004-06,0,45,0,0,0
2004-07,0,48,0,0,0
2004-08,0,47,0,0,0
2004-09,0,46,1,0,0
2004-10,0,49,1,0,0
2004-11,0,47,0,0,0
2004-12,0,47,0,0,0
2005-01,0,49,0,0,0
2005-02,0,51,1,0,0
2005-03,0,44,2,0,0
2005-04,0,43,1,0,0
2005-05,0,48,1,0,0
2005-06,0,51,1,0,0
2005-07,0,47,1,0,0
2005-08,0,46,2,0,0
2005-09,0,48,1,0,0
2005-10,0,46,1,0,0
2005-11,0,47,1,0,0
2005-12,0,45,1,0,0
2006-01,0,46,1,0,0
2006-02,0,44,1,0,0
2006-03,0,41,1,0,0
2006-04,0,39,4,0,0
2006-05,0,38,5,0,0
2006-06,0,36,1,0,0
2006-07,0,36,2,0,0
2006-08,0,36,2,0,0
2006-09,0,37,2,0,0
2006-10,0,36,13,0,0
2006-11,0,35,6,0,0
2006-12,0,35,5,0,0
2007-01,0,36,5,0,0
2007-02,0,35,4,0,0
2007-03,0,34,5,0,0
2007-04,0,32,4,0,0
2007-05,0,31,5,0,0
2007-06,0,29,4,0,0
2007-07,0,28,5,0,0
2007-08,0,28,5,0,0
2007-09,0,27,4,0,0
2007-10,0,28,5,0,0
2007-11,0,27,6,0,0
2007-12,0,26,5,0,0
2008-01,0,24,5,0,0
2008-02,0,24,5,0,0
2008-03,0,23,5,0,0
2008-04,0,23,6,0,0
2008-05,1,21,5,0,0
2008-06,1,21,5,0,0
2008-07,1,23,7,0,0
2008-08,1,20,5,0,0
2008-09,1,20,6,0,0
2008-10,1,19,6,0,0
2008-11,1,19,6,0,0
2008-12,2,18,6,0,0
2009-01,2,18,6,0,0
2009-02,2,18,6,0,0
2009-03,2,17,7,0,0
2009-04,2,17,7,0,0
2009-05,2,17,6,0,0
2009-06,2,16,7,0,0
2009-07,2,17,7,0,0
2009-08,6,16,7,0,0
2009-09,3,15,7,0,0
2009-10,3,15,8,0,0
2009-11,3,15,7,0,0
2009-12,2,14,6,0,0
2010-01,3,14,6,0,0
2010-02,3,13,7,0,0
2010-03,3,13,8,0,0
2010-04,3,12,7,0,0
2010-05,4,11,8,0,0
2010-06,4,11,7,0,0
2010-07,4,11,6,0,0
2010-08,4,10,6,0,0
2010-09,5,11,7,0,1
2010-10,5,10,7,0,1
2010-11,5,10,7,0,0
2010-12,5,10,7,0,1
2011-01,6,11,6,0,1
2011-02,7,10,7,0,1
2011-03,7,10,7,0,1
2011-04,8,9,7,0,1
2011-05,9,8,8,0,1
2011-06,10,8,7,0,1
2011-07,10,8,6,0,1
2011-08,10,7,6,0,1
2011-09,11,7,6,0,1
2011-10,11,7,7,0,2
2011-11,11,7,6,0,1
2011-12,11,7,6,0,1
2012-01,12,7,6,0,2
2012-02,13,7,6,0,2
2012-03,15,7,6,0,2
2012-04,14,7,7,0,2
2012-05,15,7,6,0,2
2012-06,15,7,6,0,2
2012-07,16,6,6,0,2
2012-08,17,6,5,0,2
2012-09,17,6,5,0,2
2012-10,18,7,5,1,3
2012-11,17,6,5,0,3
2012-12,16,6,5,0,2
2013-01,19,6,5,1,3
2013-02,20,6,5,1,3
2013-03,21,6,6,1,3
2013-04,21,6,6,1,3
2013-05,21,5,5,1,3
2013-06,21,5,4,1,3
2013-07,23,5,4,1,3
2013-08,22,5,4,1,3
2013-09,22,5,5,1,4
2013-10,25,5,5,1,4
2013-11,25,5,5,1,4
2013-12,22,4,4,1,4
2014-01,25,5,4,1,4
2014-02,28,5,4,2,5
2014-03,32,5,5,2,5
2014-04,32,5,5,2,5
2014-05,29,4,4,2,5
2014-06,27,4,4,2,5
2014-07,29,4,4,2,5
2014-08,27,4,4,2,5
2014-09,30,4,4,2,5
2014-10,33,4,4,2,6
2014-11,32,4,4,2,6
2014-12,32,4,4,2,5
2015-01,33,4,4,2,5
2015-02,36,4,4,3,6
2015-03,39,4,5,3,6
2015-04,38,3,5,3,6
2015-05,36,3,4,3,6
2015-06,38,3,4,3,6
2015-07,38,4,4,3,6
2015-08,38,3,4,3,6
2015-09,40,3,4,4,7
2015-10,42,3,4,4,8
2015-11,41,3,3,4,7
2015-12,38,3,4,4,6
2016-01,40,2,3,4,6
2016-02,44,2,3,5,7
2016-03,45,2,3,5,7
2016-04,44,2,4,5,6
2016-05,44,2,3,5,7
2016-06,45,2,3,6,7
2016-07,42,2,3,5,6
2016-08,44,2,3,5,7
2016-09,46,2,3,6,7
2016-10,50,2,3,6,7
2016-11,50,2,3,7,8
2016-12,49,2,3,6,7
2017-01,54,2,3,7,8
2017-02,61,2,3,11,8
2017-03,64,2,3,9,9
2017-04,62,2,3,8,8
2017-05,59,1,3,8,9
2017-06,57,2,3,8,8
2017-07,54,2,3,8,8
2017-08,56,2,3,9,8
2017-09,58,2,3,9,8
2017-10,61,2,3,10,9
2017-11,62,2,3,10,9
2017-12,57,2,4,8,7
2018-01,63,2,3,10,9
2018-02,66,2,3,11,9
2018-03,67,2,3,11,9
2018-04,67,2,3,11,9
2018-05,65,1,3,11,9
2018-06,78,1,2,16,9
2018-07,62,1,3,12,9
2018-08,63,1,3,12,9
2018-09,64,1,3,13,8
2018-10,70,1,3,14,9
2018-11,65,1,3,13,8
2018-12,59,1,3,11,7
2019-01,66,1,3,13,8
2019-02,66,1,3,14,8
2019-03,67,1,3,14,8
2019-04,72,1,3,14,8
2019-05,72,1,3,15,8
2019-06,73,1,3,15,8
2019-07,73,1,3,16,9
2019-08,72,1,3,15,8
2019-09,79,1,3,16,8
2019-10,79,1,3,17,8
2019-11,78,1,3,16,7
2019-12,70,1,3,14,7
2020-01,82,1,3,16,7
2020-02,100,1,3,17,8
2020-03,90,1,3,16,8
2020-04,89,1,4,16,7
2020-05,85,1,4,15,6
2020-06,86,1,3,16,7
2020-07,87,1,3,16,7
2020-08,81,1,3,15,7
