Date,Git,Apache Subversion,Mercurial,Team Foundation Server
2004-01,5,10,1,1
2004-02,4,16,1,0
2004-03,5,19,0,0
2004-04,6,18,0,0
2004-05,5,20,0,1
2004-06,5,23,1,1
2004-07,6,25,0,1
2004-08,5,25,0,1
2004-09,6,28,0,1
2004-10,6,26,1,1
2004-11,6,23,0,1
2004-12,5,26,1,1
2005-01,5,28,0,1
2005-02,5,34,1,1
2005-03,5,32,1,1
2005-04,9,32,0,2
2005-05,7,38,1,2
2005-06,7,43,1,3
2005-07,6,40,1,3
2005-08,7,42,1,3
2005-09,6,40,1,3
2005-10,6,42,1,3
2005-11,7,44,1,4
2005-12,6,39,1,4
2006-01,7,43,1,4
2006-02,8,46,1,4
2006-03,7,48,1,6
2006-04,7,47,1,5
2006-05,7,47,1,6
2006-06,8,52,1,6
2006-07,7,53,1,5
2006-08,8,55,1,6
2006-09,8,55,1,5
2006-10,7,57,1,6
2006-11,8,58,1,6
2006-12,8,51,2,6
2007-01,7,57,1,7
2007-02,7,58,1,7
2007-03,9,62,2,7
2007-04,8,56,2,6
2007-05,9,56,2,7
2007-06,12,58,2,8
2007-07,11,60,2,7
2007-08,11,59,3,7
2007-09,11,57,2,7
2007-10,11,62,2,7
2007-11,11,59,3,8
2007-12,12,52,3,7
2008-01,11,55,3,8
2008-02,13,54,3,7
2008-03,13,53,4,8
2008-04,16,56,4,8
2008-05,15,53,4,8
2008-06,16,56,4,8
2008-07,15,60,4,8
2008-08,16,57,4,8
2008-09,16,57,4,8
2008-10,17,56,4,8
2008-11,16,53,4,8
2008-12,17,51,4,6
2009-01,21,52,4,7
2009-02,21,56,4,8
2009-03,22,58,5,8
2009-04,21,56,6,8
2009-05,21,52,5,7
2009-06,22,54,5,7
2009-07,21,56,5,7
2009-08,23,53,6,7
2009-09,22,52,6,7
2009-10,22,51,5,7
2009-11,23,51,5,7
2009-12,23,46,5,6
2010-01,23,48,4,7
2010-02,25,49,6,8
2010-03,26,53,7,7
2010-04,26,49,8,9
2010-05,26,48,7,9
2010-06,27,51,7,9
2010-07,25,47,6,8
2010-08,27,45,6,8
2010-09,27,45,7,8
2010-10,29,45,7,8
2010-11,29,44,7,7
2010-12,28,40,6,7
2011-01,30,40,7,7
2011-02,32,41,7,8
2011-03,33,41,8,8
2011-04,34,41,7,7
2011-05,33,39,7,8
2011-06,35,40,7,8
2011-07,34,38,6,7
2011-08,35,37,7,7
2011-09,36,36,7,7
2011-10,37,37,7,7
2011-11,38,36,6,7
2011-12,34,32,6,6
2012-01,39,33,6,7
2012-02,41,35,6,8
2012-03,41,35,6,8
2012-04,40,32,7,7
2012-05,44,32,7,7
2012-06,44,32,7,7
2012-07,44,32,7,7
2012-08,45,31,6,8
2012-09,44,30,6,8
2012-10,47,30,6,8
2012-11,45,28,6,8
2012-12,39,24,5,6
2013-01,45,27,5,8
2013-02,48,27,6,8
2013-03,49,26,6,8
2013-04,50,27,5,8
2013-05,49,25,5,8
2013-06,49,25,5,7
2013-07,53,26,5,8
2013-08,51,24,5,7
2013-09,52,24,5,7
2013-10,56,26,5,8
2013-11,56,23,5,8
2013-12,48,20,4,7
2014-01,56,22,4,8
2014-02,59,23,4,8
2014-03,60,22,4,8
2014-04,63,22,4,8
2014-05,60,21,4,8
2014-06,60,20,5,7
2014-07,62,21,4,8
2014-08,60,19,4,7
2014-09,64,20,4,8
2014-10,65,20,4,8
2014-11,61,18,3,7
2014-12,58,16,3,7
2015-01,61,17,3,7
2015-02,68,18,4,8
2015-03,69,18,4,8
2015-04,69,17,3,8
2015-05,65,16,3,7
2015-06,71,17,3,8
2015-07,71,17,3,7
2015-08,69,15,3,7
2015-09,72,16,3,7
2015-10,74,16,3,7
2015-11,71,15,3,7
2015-12,67,13,2,6
2016-01,67,13,3,6
2016-02,76,14,3,7
2016-03,77,14,3,7
2016-04,77,14,3,7
2016-05,75,13,3,7
2016-06,80,14,3,7
2016-07,72,12,3,6
2016-08,75,12,2,6
2016-09,78,12,2,6
2016-10,79,12,2,6
2016-11,83,12,2,7
2016-12,74,11,2,6
2017-01,81,11,2,7
2017-02,92,12,2,8
2017-03,96,12,2,8
2017-04,87,11,2,7
2017-05,89,11,2,8
2017-06,90,11,2,8
2017-07,87,10,2,7
2017-08,88,10,2,8
2017-09,87,10,2,8
2017-10,88,10,2,8
2017-11,91,10,2,8
2017-12,77,8,2,7
2018-01,88,9,2,8
2018-02,92,9,2,9
2018-03,93,9,2,8
2018-04,92,9,2,8
2018-05,92,9,2,9
2018-06,93,9,2,9
2018-07,92,8,2,8
2018-08,93,8,2,9
2018-09,88,8,2,9
2018-10,94,8,2,9
2018-11,91,8,1,9
2018-12,77,7,1,7
2019-01,89,8,2,9
2019-02,96,8,2,9
2019-03,92,8,2,8
2019-04,96,8,2,9
2019-05,92,7,1,9
2019-06,92,7,1,9
2019-07,100,7,1,9
2019-08,94,7,2,9
2019-09,98,6,2,9
2019-10,100,7,1,10
2019-11,91,6,1,10
2019-12,79,6,1,8
2020-01,87,6,1,9
2020-02,94,6,1,10
2020-03,90,6,1,9
2020-04,91,5,1,8
2020-05,84,5,1,8
2020-06,91,6,1,9
2020-07,93,6,1,9
2020-08,84,5,1,7
